digraph "CUBICTUNES.Logic.Profiles"
{
 // LATEX_PDF_SIZE
  edge [fontname="Helvetica",fontsize="10",labelfontname="Helvetica",labelfontsize="10"];
  node [fontname="Helvetica",fontsize="10",shape=record];
  Node1 [label="CUBICTUNES.Logic.Profiles",height=0.2,width=0.4,color="black", fillcolor="grey75", style="filled", fontcolor="black",tooltip="The singleton class that has every record of the Profiles table."];
  Node2 -> Node1 [dir="back",color="midnightblue",fontsize="10",style="solid",fontname="Helvetica"];
  Node2 [label="IProfilesLogic",height=0.2,width=0.4,color="black", fillcolor="white", style="filled",URL="$interface_c_u_b_i_c_t_u_n_e_s_1_1_logic_1_1_i_profiles_logic.html",tooltip="Logic profile's interface."];
}
