digraph "CUBICTUNES.ViewModel.SelectProfileViewModel.SelectProfileViewModel"
{
 // LATEX_PDF_SIZE
  edge [fontname="Helvetica",fontsize="10",labelfontname="Helvetica",labelfontsize="10"];
  node [fontname="Helvetica",fontsize="10",shape=record];
  rankdir="LR";
  Node1 [label="CUBICTUNES.ViewModel.Select\lProfileViewModel.SelectProfileViewModel",height=0.2,width=0.4,color="black", fillcolor="grey75", style="filled", fontcolor="black",tooltip="Initializes a new instance of the SelectProfileViewModel class."];
  Node1 -> Node2 [color="midnightblue",fontsize="10",style="solid",fontname="Helvetica"];
  Node2 [label="CUBICTUNES.Logic.Profiles.\lDeleteProfile",height=0.2,width=0.4,color="black", fillcolor="white", style="filled",URL="$class_c_u_b_i_c_t_u_n_e_s_1_1_logic_1_1_profiles.html#a98d14b4e29db854e0b3ab9d810bdd276",tooltip="This method will delete a selected profile from the Repository Profiles singelton class."];
}
