digraph "CUBICTUNES.ViewModel.ProfileViewModel.ProfileViewModel"
{
 // LATEX_PDF_SIZE
  edge [fontname="Helvetica",fontsize="10",labelfontname="Helvetica",labelfontsize="10"];
  node [fontname="Helvetica",fontsize="10",shape=record];
  rankdir="LR";
  Node1 [label="CUBICTUNES.ViewModel.Profile\lViewModel.ProfileViewModel",height=0.2,width=0.4,color="black", fillcolor="grey75", style="filled", fontcolor="black",tooltip="Initializes a new instance of the ProfileViewModel class."];
  Node1 -> Node2 [color="midnightblue",fontsize="10",style="solid",fontname="Helvetica"];
  Node2 [label="CUBICTUNES.Logic.Profiles.\lAddNewProfile",height=0.2,width=0.4,color="black", fillcolor="white", style="filled",URL="$class_c_u_b_i_c_t_u_n_e_s_1_1_logic_1_1_profiles.html#ab28985a373aefb367fc34260bb2f5a9a",tooltip="This method will add a new profile to the Repository Profiles singelton class."];
}
