digraph "CUBICTUNES.Logic.Profiles.DeleteProfile"
{
 // LATEX_PDF_SIZE
  edge [fontname="Helvetica",fontsize="10",labelfontname="Helvetica",labelfontsize="10"];
  node [fontname="Helvetica",fontsize="10",shape=record];
  rankdir="RL";
  Node1 [label="CUBICTUNES.Logic.Profiles.\lDeleteProfile",height=0.2,width=0.4,color="black", fillcolor="grey75", style="filled", fontcolor="black",tooltip="This method will delete a selected profile from the Repository Profiles singelton class."];
  Node1 -> Node2 [dir="back",color="midnightblue",fontsize="10",style="solid",fontname="Helvetica"];
  Node2 [label="CUBICTUNES.ViewModel.Select\lProfileViewModel.SelectProfileViewModel",height=0.2,width=0.4,color="black", fillcolor="white", style="filled",URL="$class_c_u_b_i_c_t_u_n_e_s_1_1_view_model_1_1_select_profile_view_model.html#a3696f5f4a59dd7f2251db5c1c0908fb9",tooltip="Initializes a new instance of the SelectProfileViewModel class."];
}
