digraph "CUBICTUNES.View.SelectProfileWindow"
{
 // LATEX_PDF_SIZE
  edge [fontname="Helvetica",fontsize="10",labelfontname="Helvetica",labelfontsize="10"];
  node [fontname="Helvetica",fontsize="10",shape=record];
  Node1 [label="CUBICTUNES.View.SelectProfile\lWindow",height=0.2,width=0.4,color="black", fillcolor="grey75", style="filled", fontcolor="black",tooltip="SelectProfileWindow"];
  Node2 -> Node1 [dir="back",color="midnightblue",fontsize="10",style="solid",fontname="Helvetica"];
  Node2 [label="System::Windows::Window",height=0.2,width=0.4,color="grey75", fillcolor="white", style="filled",tooltip=" "];
  Node3 -> Node1 [dir="back",color="midnightblue",fontsize="10",style="solid",fontname="Helvetica"];
  Node3 [label="System::Windows::Markup\l::IComponentConnector",height=0.2,width=0.4,color="grey75", fillcolor="white", style="filled",tooltip=" "];
  Node4 -> Node1 [dir="back",color="darkorchid3",fontsize="10",style="dashed",label=" ProfilesListBox\nBackButton\nDeleteProfileButton\nSelectProfileButton\nlabel\nExitButton" ,fontname="Helvetica"];
  Node4 [label="System",height=0.2,width=0.4,color="grey75", fillcolor="white", style="filled",tooltip=" "];
}
