digraph "CUBICTUNES.View.MainMenuWindow.MainMenuWindow"
{
 // LATEX_PDF_SIZE
  edge [fontname="Helvetica",fontsize="10",labelfontname="Helvetica",labelfontsize="10"];
  node [fontname="Helvetica",fontsize="10",shape=record];
  rankdir="LR";
  Node1 [label="CUBICTUNES.View.MainMenu\lWindow.MainMenuWindow",height=0.2,width=0.4,color="black", fillcolor="grey75", style="filled", fontcolor="black",tooltip="Initializes a new instance of the MainMenuWindow class."];
  Node1 -> Node2 [color="midnightblue",fontsize="10",style="solid",fontname="Helvetica"];
  Node2 [label="CUBICTUNES.View.MainMenu\lWindow.InitializeComponent",height=0.2,width=0.4,color="black", fillcolor="white", style="filled",URL="$class_c_u_b_i_c_t_u_n_e_s_1_1_view_1_1_main_menu_window.html#ac00897b76c3f52df0d8cfffa2321e05f",tooltip="InitializeComponent"];
}
