digraph "Graphical Class Hierarchy"
{
 // LATEX_PDF_SIZE
  edge [fontname="Helvetica",fontsize="10",labelfontname="Helvetica",labelfontsize="10"];
  node [fontname="Helvetica",fontsize="10",shape=record];
  rankdir="LR";
  Node35 [label="FrameworkElement",height=0.2,width=0.4,color="grey75", fillcolor="white", style="filled",tooltip=" "];
  Node35 -> Node0 [dir="back",color="midnightblue",fontsize="10",style="solid",fontname="Helvetica"];
  Node0 [label="CUBICTUNES.ViewModel.Game\lControl",height=0.2,width=0.4,color="black", fillcolor="white", style="filled",URL="$class_c_u_b_i_c_t_u_n_e_s_1_1_view_model_1_1_game_control.html",tooltip="The game's control."];
}
