digraph "Graphical Class Hierarchy"
{
 // LATEX_PDF_SIZE
  edge [fontname="Helvetica",fontsize="10",labelfontname="Helvetica",labelfontsize="10"];
  node [fontname="Helvetica",fontsize="10",shape=record];
  rankdir="LR";
  Node28 [label="InternalTypeHelper",height=0.2,width=0.4,color="grey75", fillcolor="white", style="filled",tooltip=" "];
  Node28 -> Node0 [dir="back",color="midnightblue",fontsize="10",style="solid",fontname="Helvetica"];
  Node0 [label="XamlGeneratedNamespace.Generated\lInternalTypeHelper",height=0.2,width=0.4,color="black", fillcolor="white", style="filled",URL="$class_xaml_generated_namespace_1_1_generated_internal_type_helper.html",tooltip="GeneratedInternalTypeHelper"];
}
