digraph "Graphical Class Hierarchy"
{
 // LATEX_PDF_SIZE
  edge [fontname="Helvetica",fontsize="10",labelfontname="Helvetica",labelfontsize="10"];
  node [fontname="Helvetica",fontsize="10",shape=record];
  rankdir="LR";
  Node0 [label="CUBICTUNES.Repository.IProfiles\lRepository",height=0.2,width=0.4,color="black", fillcolor="white", style="filled",URL="$interface_c_u_b_i_c_t_u_n_e_s_1_1_repository_1_1_i_profiles_repository.html",tooltip="Repository profile's interface."];
  Node0 -> Node1 [dir="back",color="midnightblue",fontsize="10",style="solid",fontname="Helvetica"];
  Node1 [label="CUBICTUNES.Repository.Profiles",height=0.2,width=0.4,color="black", fillcolor="white", style="filled",URL="$class_c_u_b_i_c_t_u_n_e_s_1_1_repository_1_1_profiles.html",tooltip="The singleton class that has every record of the Profiles table."];
}
