digraph "CUBICTUNES.View.SelectProfileWindow.SelectProfileWindow"
{
 // LATEX_PDF_SIZE
  edge [fontname="Helvetica",fontsize="10",labelfontname="Helvetica",labelfontsize="10"];
  node [fontname="Helvetica",fontsize="10",shape=record];
  rankdir="LR";
  Node1 [label="CUBICTUNES.View.SelectProfile\lWindow.SelectProfileWindow",height=0.2,width=0.4,color="black", fillcolor="grey75", style="filled", fontcolor="black",tooltip="Initializes a new instance of the SelectProfileWindow class."];
  Node1 -> Node2 [color="midnightblue",fontsize="10",style="solid"];
  Node2 [label="CUBICTUNES.View.SelectProfile\lWindow.InitializeComponent",height=0.2,width=0.4,color="black", fillcolor="white", style="filled",URL="$class_c_u_b_i_c_t_u_n_e_s_1_1_view_1_1_select_profile_window.html#a6a2e7cf745b7f0e4218035a78b4c89ee",tooltip="InitializeComponent"];
}
