digraph "CUBICTUNES.View.NewProfileWindow"
{
 // LATEX_PDF_SIZE
  edge [fontname="Helvetica",fontsize="10",labelfontname="Helvetica",labelfontsize="10"];
  node [fontname="Helvetica",fontsize="10",shape=record];
  Node1 [label="CUBICTUNES.View.NewProfile\lWindow",height=0.2,width=0.4,color="black", fillcolor="grey75", style="filled", fontcolor="black",tooltip="Interaction logic for NewProfileWindow.xaml."];
  Node2 -> Node1 [dir="back",color="midnightblue",fontsize="10",style="solid"];
  Node2 [label="Window",height=0.2,width=0.4,color="grey75", fillcolor="white", style="filled",tooltip=" "];
  Node3 -> Node1 [dir="back",color="darkorchid3",fontsize="10",style="dashed",label=" CreateProfileButton\nBackButton\nNewProfileName\nlabel\nExitButton" ];
  Node3 [label="System",height=0.2,width=0.4,color="grey75", fillcolor="white", style="filled",tooltip=" "];
}
