digraph "CUBICTUNES.Logic.Profiles.AddNewProfile"
{
 // LATEX_PDF_SIZE
  edge [fontname="Helvetica",fontsize="10",labelfontname="Helvetica",labelfontsize="10"];
  node [fontname="Helvetica",fontsize="10",shape=record];
  rankdir="RL";
  Node1 [label="CUBICTUNES.Logic.Profiles.\lAddNewProfile",height=0.2,width=0.4,color="black", fillcolor="grey75", style="filled", fontcolor="black",tooltip="This method will add a new profile to the Repository Profiles singelton class."];
  Node1 -> Node2 [dir="back",color="midnightblue",fontsize="10",style="solid"];
  Node2 [label="CUBICTUNES.ViewModel.Profile\lViewModel.ProfileViewModel",height=0.2,width=0.4,color="black", fillcolor="white", style="filled",URL="$class_c_u_b_i_c_t_u_n_e_s_1_1_view_model_1_1_profile_view_model.html#af75b50a4e6bd233b416f32e9db9f7e1f",tooltip="Initializes a new instance of the ProfileViewModel class."];
}
