digraph "CUBICTUNES.Logic.GameLogic"
{
 // LATEX_PDF_SIZE
  edge [fontname="Helvetica",fontsize="10",labelfontname="Helvetica",labelfontsize="10"];
  node [fontname="Helvetica",fontsize="10",shape=record];
  Node1 [label="CUBICTUNES.Logic.GameLogic",height=0.2,width=0.4,color="black", fillcolor="grey75", style="filled", fontcolor="black",tooltip="The game's logic."];
  Node2 -> Node1 [dir="back",color="midnightblue",fontsize="10",style="solid"];
  Node2 [label="IGameLogic",height=0.2,width=0.4,color="black", fillcolor="white", style="filled",URL="$interface_c_u_b_i_c_t_u_n_e_s_1_1_logic_1_1_i_game_logic.html",tooltip="This interface declares what game logic methods will have to be written."];
}
